Homework 4
…
Part B

votes_2014 <- nzge %>% 
  filter(election_year == 2014, voting_type == "Candidate") %>% 
  group_by(party) %>% 
  summarize(party_total_votes = sum(votes)) %>% 
  ungroup() %>% 
  mutate(vote_proportion = party_total_votes / sum(party_total_votes) * 100) %>% 
  select(-party_total_votes) %>% 
  arrange(desc(vote_proportion))
  
votes_2014

# A tibble: 25 × 2
   party                    vote_proportion
   <chr>                              <dbl>
 1 National Party                    45.5  
 2 Labour Party                      33.7  
 3 Green Party                        6.98 
 4 Conservative Party                 3.41 
 5 New Zealand First Party            3.09 
 6 Maori Party                        1.77 
 7 MANA Movement                      1.36 
 8 Informal Candidate Votes           1.17 
 9 ACT New Zealand                    1.17 
10 United Future                      0.620
# ℹ 15 more rows
…
There were 125 tournaments in 2019.

Part B

# winner of tourney is winner of final round
player_wins <- tennis %>% 
  filter(round == "F") %>% 
  group_by(winner_name) %>% 
  summarize(win_count = n()) %>% 
  arrange(desc(win_count))

player_wins

# A tibble: 41 × 2
   winner_name        win_count
   <chr>                  <int>
 1 Dominic Thiem              5
 2 Novak Djokovic             5
 3 Daniil Medvedev            4
 4 Rafael Nadal               4
 5 Roger Federer              4
 6 Alex De Minaur             3
 7 Stefanos Tsitsipas         3
 8 Benoit Paire               2
 9 Cristian Garin             2
10 Jo-Wilfried Tsonga         2
# ℹ 31 more rows
…
winning_rate <- match_data %>% 
  group_by(player_name) %>% 
  summarize(
    matches_played = n(),
    wins = sum(win),
    winning_rate = wins/matches_played
  ) %>% 
  filter(matches_played >= 5) %>% 
  arrange(desc(winning_rate))

winning_rate

# A tibble: 167 × 4
   player_name        matches_played  wins winning_rate
   <chr>                       <int> <dbl>        <dbl>
 1 Rafael Nadal                   69    60        0.870
 2 Novak Djokovic                 69    58        0.841
 3 Roger Federer                  66    55        0.833
 4 Daniil Medvedev                80    59        0.738
 5 Kevin Anderson                 15    11        0.733
 6 Dominic Thiem                  69    50        0.725
 7 Attila Balazs                  10     7        0.7  
 8 Stefanos Tsitsipas             80    55        0.688
 9 Alex De Minaur                 62    42        0.677
10 Kei Nishikori                  43    29        0.674
# ℹ 157 more rows
…
